// Jest Snapshot v1, https://goo.gl/fbAQLP

exports[`Button Should render correctly 1`] = `
.c0 {
  width: 100%;
  margin: 10px 0;
  cursor: pointer;
  position: relative;
  background-color: #3273dc;
  color: #FFFFFF;
  -webkit-box-pack: center;
  -webkit-justify-content: center;
  -ms-flex-pack: center;
  justify-content: center;
  padding-bottom: calc(0.5em - 1px);
  padding-left: 1em;
  padding-right: 1em;
  padding-top: calc(0.5em - 1px);
  text-align: center;
  white-space: nowrap;
  border-width: 1px;
  border-radius: 4px;
  height: 40px;
  -webkit-transition: all 0.4s ease;
  transition: all 0.4s ease;
}

.c0:hover {
  opacity: 0.8;
}

.c1 {
  right: 20px;
  margin-left: 10px;
  color: #FFFFFF;
}

<div>
  <button
    class="c0"
    type="submit"
  >
    button
    <i
      class="c1 fas fa-arrow-right"
    />
  </button>
</div>
`;
